// ANGULAR ---------------------------------------------------------------------

// THIRD PARTY -----------------------------------------------------------------

// HELPERS ---------------------------------------------------------------------

// INTERFACES ------------------------------------------------------------------

// APIS ------------------------------------------------------------------------

// COMPONENTS ------------------------------------------------------------------

// ENUMS -----------------------------------------------------------------------

// DATA STRUCTURES -------------------------------------------------------------


// * PUBLIC METHODS ----------------------------------------------------------

// * PUBLIC VARIABLES --------------------------------------------------------

// * PRIVATE METHODS ---------------------------------------------------------

// * PRIVATE VARIABLES -------------------------------------------------------
